<?xml version="1.0" encoding="utf-8"?>
<!-- Generator: Adobe Illustrator 19.0.1, SVG Export Plug-In . SVG Version: 6.00 Build 0)  -->
<svg version="1.1" id="Capa_1" xmlns="http://www.w3.org/2000/svg" xmlns:xlink="http://www.w3.org/1999/xlink" x="0px" y="0px"
	 width="41.3px" height="43.5px" viewBox="-941 186.5 41.3 43.5" style="enable-background:new -941 186.5 41.3 43.5;"
	 xml:space="preserve">
<style type="text/css">
	.st0{fill:#134260;}
	.st1{fill:#D75A4A;}
	.st2{fill:#0E2D3F;}
	.st3{fill:#EBBA16;}
	.st4{fill:#E0E1E2;}
	.st5{fill:#DB7B1B;}
	.st6{fill:#C4C4C4;}
	.st7{fill:#B74C44;}
	.st8{fill:#EBD6BD;}
	.st9{fill:#4C4C4C;}
	.st10{fill:#ED8A19;}
</style>
<path class="st0" d="M-913,224.9h-28v-38.3h28c1.2,0,2.2,1,2.2,2.2v33.9C-910.8,223.9-911.8,224.9-913,224.9z"/>
<rect x="-918.8" y="186.6" class="st1" width="3.7" height="38.3"/>
<g>
	<rect x="-941" y="199.1" class="st2" width="22.1" height="13.3"/>
	<rect x="-915.2" y="199.1" class="st2" width="4.4" height="13.3"/>
</g>
<polygon class="st3" points="-933.6,228.6 -935.8,227.1 -938.1,228.6 -938.1,224.9 -933.6,224.9 "/>
<rect x="-905.6" y="191.7" class="st4" width="2.9" height="2.9"/>
<path class="st1" d="M-902.7,186.6h-1.5c-0.2,0-0.4,0-0.6,0.1c-0.1,0-0.2,0.1-0.2,0.1c-0.4,0.3-0.6,0.7-0.6,1.2v3.7h2.9V186.6
	L-902.7,186.6z"/>
<path class="st1" d="M-901.2,186.6L-901.2,186.6c0.2,0,0.4,0,0.6,0.1C-900.8,186.6-901,186.6-901.2,186.6z"/>
<rect x="-902.7" y="194.7" class="st5" width="2.9" height="28"/>
<rect x="-902.7" y="191.7" class="st6" width="2.9" height="2.9"/>
<path class="st1" d="M-899.8,188.1L-899.8,188.1c0-0.5-0.3-0.9-0.6-1.2C-900,187.1-899.8,187.5-899.8,188.1z"/>
<path class="st7" d="M-899.8,191.7V188c0-0.5-0.3-0.9-0.6-1.2c-0.1-0.1-0.2-0.1-0.2-0.1c-0.2-0.1-0.4-0.1-0.6-0.1h-1.5v5.2
	L-899.8,191.7L-899.8,191.7z"/>
<polygon class="st8" points="-899.8,222.7 -905.6,222.7 -902.7,227.8 "/>
<path class="st9" d="M-903.3,229.3c0,0.4,0.3,0.7,0.7,0.7c0.4,0,0.7-0.3,0.7-0.7v-2.9h-1.5v2.9H-903.3z"/>
<rect x="-905.6" y="194.7" class="st10" width="2.9" height="28"/>
</svg>
